%YAML 1.1
%TAG !u! tag:unity3d.com,2011:
--- !u!74 &7400000
AnimationClip:
  serializedVersion: 4
  m_ObjectHideFlags: 0
  m_PrefabParentObject: {fileID: 0}
  m_PrefabInternal: {fileID: 0}
  m_Name: TorsoShoot
  m_AnimationType: 2
  m_Compressed: 0
  m_UseHighQualityCurve: 1
  m_RotationCurves:
  - curve:
      serializedVersion: 2
      m_Curve:
      - time: 0
        value: {x: 0, y: 0, z: 0.9909128, w: 0.13450615}
        inSlope: {x: 0, y: 0, z: 0, w: 0}
        outSlope: {x: 0, y: 0, z: 0, w: 0}
        tangentMode: 1
      - time: 0.016666668
        value: {x: 0, y: 0, z: 0.9909128, w: 0.13450615}
        inSlope: {x: 0, y: 0, z: 0, w: 0}
        outSlope: {x: 0, y: 0, z: 0, w: 0}
        tangentMode: 1
      m_PreInfinity: 2
      m_PostInfinity: 2
    path: V Oberarm
  - curve:
      serializedVersion: 2
      m_Curve:
      - time: 0
        value: {x: 0, y: 0, z: -0.44206658, w: 0.8969822}
        inSlope: {x: 0, y: 0, z: 0, w: 0}
        outSlope: {x: 0, y: 0, z: 0, w: 0}
        tangentMode: 1
      - time: 0.016666668
        value: {x: 0, y: 0, z: -0.44206658, w: 0.8969822}
        inSlope: {x: 0, y: 0, z: 0, w: 0}
        outSlope: {x: 0, y: 0, z: 0, w: 0}
        tangentMode: 1
      m_PreInfinity: 2
      m_PostInfinity: 2
    path: V Hand
  - curve:
      serializedVersion: 2
      m_Curve:
      - time: 0
        value: {x: 0, y: 0, z: 0, w: 1}
        inSlope: {x: 0, y: 0, z: 0, w: 0}
        outSlope: {x: 0, y: 0, z: 0, w: 0}
        tangentMode: 1
      - time: 0.016666668
        value: {x: 0, y: 0, z: 0, w: 1}
        inSlope: {x: 0, y: 0, z: 0, w: 0}
        outSlope: {x: 0, y: 0, z: 0, w: 0}
        tangentMode: 1
      m_PreInfinity: 2
      m_PostInfinity: 2
    path: Pistole
  - curve:
      serializedVersion: 2
      m_Curve:
      - time: 0
        value: {x: 0, y: 0, z: -0.37864277, w: 0.9255429}
        inSlope: {x: 0, y: 0, z: 0, w: 0}
        outSlope: {x: 0, y: 0, z: 0, w: 0}
        tangentMode: 1
      - time: 0.016666668
        value: {x: 0, y: 0, z: -0.37864277, w: 0.9255429}
        inSlope: {x: 0, y: 0, z: 0, w: 0}
        outSlope: {x: 0, y: 0, z: 0, w: 0}
        tangentMode: 1
      m_PreInfinity: 2
      m_PostInfinity: 2
    path: H Hand
  - curve:
      serializedVersion: 2
      m_Curve:
      - time: 0
        value: {x: 0, y: 0, z: 0.9995717, w: 0.029265353}
        inSlope: {x: 0, y: 0, z: 0, w: 0}
        outSlope: {x: 0, y: 0, z: 0, w: 0}
        tangentMode: 1
      - time: 0.016666668
        value: {x: 0, y: 0, z: 0.9995717, w: 0.029265353}
        inSlope: {x: 0, y: 0, z: 0, w: 0}
        outSlope: {x: 0, y: 0, z: 0, w: 0}
        tangentMode: 1
      m_PreInfinity: 2
      m_PostInfinity: 2
    path: H Oberarm
  - curve:
      serializedVersion: 2
      m_Curve:
      - time: 0
        value: {x: 0, y: 0, z: 0.99991816, w: 0.012793863}
        inSlope: {x: 0, y: 0, z: 0, w: 0}
        outSlope: {x: 0, y: 0, z: 0, w: 0}
        tangentMode: 1
      - time: 0.016666668
        value: {x: 0, y: 0, z: 0.99991816, w: 0.012793863}
        inSlope: {x: 0, y: 0, z: 0, w: 0}
        outSlope: {x: 0, y: 0, z: 0, w: 0}
        tangentMode: 1
      m_PreInfinity: 2
      m_PostInfinity: 2
    path: H Unterarm
  - curve:
      serializedVersion: 2
      m_Curve:
      - time: 0
        value: {x: 0, y: 0, z: 0.99882567, w: -0.048449658}
        inSlope: {x: 0, y: 0, z: 0, w: 0}
        outSlope: {x: 0, y: 0, z: 0, w: 0}
        tangentMode: 1
      - time: 0.016666668
        value: {x: 0, y: 0, z: 0.99882567, w: -0.048449658}
        inSlope: {x: 0, y: 0, z: 0, w: 0}
        outSlope: {x: 0, y: 0, z: 0, w: 0}
        tangentMode: 1
      m_PreInfinity: 2
      m_PostInfinity: 2
    path: V Unterarm
  m_CompressedRotationCurves: []
  m_PositionCurves:
  - curve:
      serializedVersion: 2
      m_Curve:
      - time: 0
        value: {x: 0.83, y: 0.9533844, z: -0.04}
        inSlope: {x: 0, y: 0, z: 0}
        outSlope: {x: 0, y: 0, z: 0}
        tangentMode: 1
      - time: 0.016666668
        value: {x: 0.83, y: 0.9533844, z: -0.04}
        inSlope: {x: 0, y: 0, z: 0}
        outSlope: {x: 0, y: 0, z: 0}
        tangentMode: 1
      m_PreInfinity: 2
      m_PostInfinity: 2
    path: V Unterarm
  - curve:
      serializedVersion: 2
      m_Curve:
      - time: 0
        value: {x: 1.16, y: 1.0396729, z: 0}
        inSlope: {x: 0, y: 0, z: 0}
        outSlope: {x: 0, y: 0, z: 0}
        tangentMode: 1
      - time: 0.016666668
        value: {x: 1.16, y: 1.0396729, z: 0}
        inSlope: {x: 0, y: 0, z: 0}
        outSlope: {x: 0, y: 0, z: 0}
        tangentMode: 1
      m_PreInfinity: 2
      m_PostInfinity: 2
    path: V Hand
  - curve:
      serializedVersion: 2
      m_Curve:
      - time: 0
        value: {x: 0.2, y: 0.98073006, z: -0.04}
        inSlope: {x: 0, y: 0, z: 0}
        outSlope: {x: 0, y: 0, z: 0}
        tangentMode: 1
      - time: 0.016666668
        value: {x: 0.2, y: 0.98073006, z: -0.04}
        inSlope: {x: 0, y: 0, z: 0}
        outSlope: {x: 0, y: 0, z: 0}
        tangentMode: 1
      m_PreInfinity: 2
      m_PostInfinity: 2
    path: V Oberarm
  - curve:
      serializedVersion: 2
      m_Curve:
      - time: 0
        value: {x: 1.16, y: 1.0713396, z: 0.1}
        inSlope: {x: 0, y: 0, z: 0}
        outSlope: {x: 0, y: 0, z: 0}
        tangentMode: 1
      - time: 0.016666668
        value: {x: 1.16, y: 1.0713396, z: 0.1}
        inSlope: {x: 0, y: 0, z: 0}
        outSlope: {x: 0, y: 0, z: 0}
        tangentMode: 1
      m_PreInfinity: 2
      m_PostInfinity: 2
    path: H Hand
  - curve:
      serializedVersion: 2
      m_Curve:
      - time: 0
        value: {x: 0.84, y: 1.0486794, z: 0.1}
        inSlope: {x: 0, y: 0, z: 0}
        outSlope: {x: 0, y: 0, z: 0}
        tangentMode: 1
      - time: 0.016666668
        value: {x: 0.84, y: 1.0486794, z: 0.1}
        inSlope: {x: 0, y: 0, z: 0}
        outSlope: {x: 0, y: 0, z: 0}
        tangentMode: 1
      m_PreInfinity: 2
      m_PostInfinity: 2
    path: H Unterarm
  - curve:
      serializedVersion: 2
      m_Curve:
      - time: 0
        value: {x: 0.21, y: 1.0422716, z: 0.1}
        inSlope: {x: 0, y: 0, z: 0}
        outSlope: {x: 0, y: 0, z: 0}
        tangentMode: 1
      - time: 0.016666668
        value: {x: 0.21, y: 1.0422716, z: 0.1}
        inSlope: {x: 0, y: 0, z: 0}
        outSlope: {x: 0, y: 0, z: 0}
        tangentMode: 1
      m_PreInfinity: 2
      m_PostInfinity: 2
    path: H Oberarm
  - curve:
      serializedVersion: 2
      m_Curve:
      - time: 0
        value: {x: 1.37, y: 1.1325836, z: 0.03}
        inSlope: {x: 0, y: 0, z: 0}
        outSlope: {x: 0, y: 0, z: 0}
        tangentMode: 1
      - time: 0.016666668
        value: {x: 1.37, y: 1.1325836, z: 0.03}
        inSlope: {x: 0, y: 0, z: 0}
        outSlope: {x: 0, y: 0, z: 0}
        tangentMode: 1
      m_PreInfinity: 2
      m_PostInfinity: 2
    path: Pistole
  m_ScaleCurves: []
  m_FloatCurves: []
  m_PPtrCurves: []
  m_SampleRate: 60
  m_WrapMode: 0
  m_Bounds:
    m_Center: {x: 0, y: 0, z: 0}
    m_Extent: {x: 0, y: 0, z: 0}
  m_ClipBindingConstant:
    genericBindings:
    - path: 1953935035
      attribute: 1
      script: {fileID: 0}
      classID: 4
      customType: 0
      isPPtrCurve: 0
    - path: 213932000
      attribute: 1
      script: {fileID: 0}
      classID: 4
      customType: 0
      isPPtrCurve: 0
    - path: 515101289
      attribute: 1
      script: {fileID: 0}
      classID: 4
      customType: 0
      isPPtrCurve: 0
    - path: 891040779
      attribute: 1
      script: {fileID: 0}
      classID: 4
      customType: 0
      isPPtrCurve: 0
    - path: 1292967904
      attribute: 1
      script: {fileID: 0}
      classID: 4
      customType: 0
      isPPtrCurve: 0
    - path: 2058439562
      attribute: 1
      script: {fileID: 0}
      classID: 4
      customType: 0
      isPPtrCurve: 0
    - path: 2088171758
      attribute: 1
      script: {fileID: 0}
      classID: 4
      customType: 0
      isPPtrCurve: 0
    - path: 515101289
      attribute: 2
      script: {fileID: 0}
      classID: 4
      customType: 0
      isPPtrCurve: 0
    - path: 213932000
      attribute: 2
      script: {fileID: 0}
      classID: 4
      customType: 0
      isPPtrCurve: 0
    - path: 2088171758
      attribute: 2
      script: {fileID: 0}
      classID: 4
      customType: 0
      isPPtrCurve: 0
    - path: 891040779
      attribute: 2
      script: {fileID: 0}
      classID: 4
      customType: 0
      isPPtrCurve: 0
    - path: 2058439562
      attribute: 2
      script: {fileID: 0}
      classID: 4
      customType: 0
      isPPtrCurve: 0
    - path: 1292967904
      attribute: 2
      script: {fileID: 0}
      classID: 4
      customType: 0
      isPPtrCurve: 0
    - path: 1953935035
      attribute: 2
      script: {fileID: 0}
      classID: 4
      customType: 0
      isPPtrCurve: 0
    pptrCurveMapping: []
  m_AnimationClipSettings:
    serializedVersion: 2
    m_StartTime: 0
    m_StopTime: 0
    m_OrientationOffsetY: 0
    m_Level: 0
    m_CycleOffset: 0
    m_LoopTime: 1
    m_LoopBlend: 0
    m_LoopBlendOrientation: 0
    m_LoopBlendPositionY: 0
    m_LoopBlendPositionXZ: 0
    m_KeepOriginalOrientation: 0
    m_KeepOriginalPositionY: 1
    m_KeepOriginalPositionXZ: 0
    m_HeightFromFeet: 0
    m_Mirror: 0
  m_EditorCurves: []
  m_EulerEditorCurves: []
  m_Events: []
