%YAML 1.1
%TAG !u! tag:unity3d.com,2011:
--- !u!13 &1
InputManager:
  m_ObjectHideFlags: 0
  m_Axes:
  - serializedVersion: 3
    m_Name: Horizontal
    descriptiveName:
    descriptiveNegativeName:
    negativeButton: a
    positiveButton: d
    altNegativeButton:
    altPositiveButton:
    gravity: 3
    dead: 0.001
    sensitivity: 3
    snap: 1
    invert: 0
    type: 0
    axis: 0
    joyNum: 0
  - serializedVersion: 3
    m_Name: Vertical
    descriptiveName:
    descriptiveNegativeName:
    negativeButton: s
    positiveButton: w
    altNegativeButton:
    altPositiveButton:
    gravity: 3
    dead: 0.001
    sensitivity: 3
    snap: 1
    invert: 0
    type: 0
    axis: 0
    joyNum: 0
  - serializedVersion: 3
    m_Name: Fire1
    descriptiveName:
    descriptiveNegativeName:
    negativeButton:
    positiveButton: left ctrl
    altNegativeButton:
    altPositiveButton:
    gravity: 1000
    dead: 0.001
    sensitivity: 1000
    snap: 0
    invert: 0
    type: 0
    axis: 0
    joyNum: 0
  - serializedVersion: 3
    m_Name: Fire2
    descriptiveName:
    descriptiveNegativeName:
    negativeButton:
    positiveButton: return
    altNegativeButton:
    altPositiveButton:
    gravity: 1000
    dead: 0.001
    sensitivity: 1000
    snap: 0
    invert: 0
    type: 0
    axis: 0
    joyNum: 0
  - serializedVersion: 3
    m_Name: Horizontal2
    descriptiveName:
    descriptiveNegativeName:
    negativeButton: left
    positiveButton: right
    altNegativeButton:
    altPositiveButton:
    gravity: 3
    dead: 0.001
    sensitivity: 3
    snap: 1
    invert: 0
    type: 0
    axis: 0
    joyNum: 0
  - serializedVersion: 3
    m_Name: Vertical2
    descriptiveName:
    descriptiveNegativeName:
    negativeButton: down
    positiveButton: up
    altNegativeButton:
    altPositiveButton:
    gravity: 3
    dead: 0.001
    sensitivity: 3
    snap: 1
    invert: 0
    type: 0
    axis: 0
    joyNum: 0
  - serializedVersion: 3
    m_Name: Horizontal3
    descriptiveName:
    descriptiveNegativeName:
    negativeButton: '[4]'
    positiveButton: '[6]'
    altNegativeButton:
    altPositiveButton:
    gravity: 3
    dead: 0.001
    sensitivity: 3
    snap: 1
    invert: 0
    type: 0
    axis: 0
    joyNum: 0
  - serializedVersion: 3
    m_Name: Vertical3
    descriptiveName:
    descriptiveNegativeName:
    negativeButton: '[5]'
    positiveButton: '[8]'
    altNegativeButton:
    altPositiveButton:
    gravity: 3
    dead: 0.001
    sensitivity: 3
    snap: 1
    invert: 0
    type: 0
    axis: 0
    joyNum: 0
  - serializedVersion: 3
    m_Name: Fire3
    descriptiveName:
    descriptiveNegativeName:
    negativeButton:
    positiveButton: '[0]'
    altNegativeButton:
    altPositiveButton:
    gravity: 1000
    dead: 0.001
    sensitivity: 1000
    snap: 0
    invert: 0
    type: 0
    axis: 0
    joyNum: 0
  - serializedVersion: 3
    m_Name: Horizontal4
    descriptiveName:
    descriptiveNegativeName:
    negativeButton: j
    positiveButton: l
    altNegativeButton:
    altPositiveButton:
    gravity: 3
    dead: 0.001
    sensitivity: 3
    snap: 1
    invert: 0
    type: 0
    axis: 0
    joyNum: 0
  - serializedVersion: 3
    m_Name: Vertical4
    descriptiveName:
    descriptiveNegativeName:
    negativeButton: k
    positiveButton: i
    altNegativeButton:
    altPositiveButton:
    gravity: 3
    dead: 0.001
    sensitivity: 3
    snap: 1
    invert: 0
    type: 0
    axis: 0
    joyNum: 0
  - serializedVersion: 3
    m_Name: Fire4
    descriptiveName:
    descriptiveNegativeName:
    negativeButton:
    positiveButton: space
    altNegativeButton:
    altPositiveButton:
    gravity: 1000
    dead: 0.001
    sensitivity: 1000
    snap: 0
    invert: 0
    type: 0
    axis: 0
    joyNum: 0
  - serializedVersion: 3
    m_Name: joy1axis2
    descriptiveName:
    descriptiveNegativeName:
    negativeButton:
    positiveButton:
    altNegativeButton:
    altPositiveButton:
    gravity: 0
    dead: 0.019
    sensitivity: 1
    snap: 0
    invert: 0
    type: 2
    axis: 1
    joyNum: 1
  - serializedVersion: 3
    m_Name: joy1axis3
    descriptiveName:
    descriptiveNegativeName:
    negativeButton:
    positiveButton:
    altNegativeButton:
    altPositiveButton:
    gravity: 0
    dead: 0.019
    sensitivity: 1
    snap: 0
    invert: 0
    type: 2
    axis: 2
    joyNum: 1
  - serializedVersion: 3
    m_Name: joy1axis4
    descriptiveName:
    descriptiveNegativeName:
    negativeButton:
    positiveButton:
    altNegativeButton:
    altPositiveButton:
    gravity: 0
    dead: 0.019
    sensitivity: 1
    snap: 0
    invert: 0
    type: 2
    axis: 3
    joyNum: 1
  - serializedVersion: 3
    m_Name: joy1axis5
    descriptiveName:
    descriptiveNegativeName:
    negativeButton:
    positiveButton:
    altNegativeButton:
    altPositiveButton:
    gravity: 0
    dead: 0.019
    sensitivity: 1
    snap: 0
    invert: 0
    type: 2
    axis: 4
    joyNum: 1
  - serializedVersion: 3
    m_Name: joy1axis6
    descriptiveName:
    descriptiveNegativeName:
    negativeButton:
    positiveButton:
    altNegativeButton:
    altPositiveButton:
    gravity: 0
    dead: 0.019
    sensitivity: 1
    snap: 0
    invert: 0
    type: 2
    axis: 5
    joyNum: 1
  - serializedVersion: 3
    m_Name: joy1axis7
    descriptiveName:
    descriptiveNegativeName:
    negativeButton:
    positiveButton:
    altNegativeButton:
    altPositiveButton:
    gravity: 0
    dead: 0.019
    sensitivity: 1
    snap: 0
    invert: 0
    type: 2
    axis: 6
    joyNum: 1
  - serializedVersion: 3
    m_Name: joy1axis1
    descriptiveName:
    descriptiveNegativeName:
    negativeButton:
    positiveButton:
    altNegativeButton:
    altPositiveButton:
    gravity: 0
    dead: 0.019
    sensitivity: 1
    snap: 0
    invert: 0
    type: 2
    axis: 0
    joyNum: 1
  - serializedVersion: 3
    m_Name: joy2axis1
    descriptiveName:
    descriptiveNegativeName:
    negativeButton:
    positiveButton:
    altNegativeButton:
    altPositiveButton:
    gravity: 0
    dead: 0.019
    sensitivity: 1
    snap: 0
    invert: 0
    type: 2
    axis: 0
    joyNum: 2
  - serializedVersion: 3
    m_Name: joy2axis2
    descriptiveName:
    descriptiveNegativeName:
    negativeButton:
    positiveButton:
    altNegativeButton:
    altPositiveButton:
    gravity: 0
    dead: 0.019
    sensitivity: 1
    snap: 0
    invert: 0
    type: 2
    axis: 1
    joyNum: 2
  - serializedVersion: 3
    m_Name: joy2axis3
    descriptiveName:
    descriptiveNegativeName:
    negativeButton:
    positiveButton:
    altNegativeButton:
    altPositiveButton:
    gravity: 0
    dead: 0.019
    sensitivity: 1
    snap: 0
    invert: 0
    type: 2
    axis: 2
    joyNum: 2
  - serializedVersion: 3
    m_Name: joy2axis4
    descriptiveName:
    descriptiveNegativeName:
    negativeButton:
    positiveButton:
    altNegativeButton:
    altPositiveButton:
    gravity: 0
    dead: 0.019
    sensitivity: 1
    snap: 0
    invert: 0
    type: 2
    axis: 3
    joyNum: 2
  - serializedVersion: 3
    m_Name: joy2axis5
    descriptiveName:
    descriptiveNegativeName:
    negativeButton:
    positiveButton:
    altNegativeButton:
    altPositiveButton:
    gravity: 0
    dead: 0.019
    sensitivity: 1
    snap: 0
    invert: 0
    type: 2
    axis: 4
    joyNum: 2
  - serializedVersion: 3
    m_Name: joy2axis6
    descriptiveName:
    descriptiveNegativeName:
    negativeButton:
    positiveButton:
    altNegativeButton:
    altPositiveButton:
    gravity: 0
    dead: 0.019
    sensitivity: 1
    snap: 0
    invert: 0
    type: 2
    axis: 5
    joyNum: 2
  - serializedVersion: 3
    m_Name: joy2axis7
    descriptiveName:
    descriptiveNegativeName:
    negativeButton:
    positiveButton:
    altNegativeButton:
    altPositiveButton:
    gravity: 0
    dead: 0.019
    sensitivity: 1
    snap: 0
    invert: 0
    type: 2
    axis: 6
    joyNum: 2
  - serializedVersion: 3
    m_Name: joy3axis1
    descriptiveName:
    descriptiveNegativeName:
    negativeButton:
    positiveButton:
    altNegativeButton:
    altPositiveButton:
    gravity: 0
    dead: 0.019
    sensitivity: 1
    snap: 0
    invert: 0
    type: 2
    axis: 0
    joyNum: 3
  - serializedVersion: 3
    m_Name: joy3axis2
    descriptiveName:
    descriptiveNegativeName:
    negativeButton:
    positiveButton:
    altNegativeButton:
    altPositiveButton:
    gravity: 0
    dead: 0.019
    sensitivity: 1
    snap: 0
    invert: 0
    type: 2
    axis: 1
    joyNum: 3
  - serializedVersion: 3
    m_Name: joy3axis3
    descriptiveName:
    descriptiveNegativeName:
    negativeButton:
    positiveButton:
    altNegativeButton:
    altPositiveButton:
    gravity: 0
    dead: 0.019
    sensitivity: 1
    snap: 0
    invert: 0
    type: 2
    axis: 2
    joyNum: 3
  - serializedVersion: 3
    m_Name: joy3axis4
    descriptiveName:
    descriptiveNegativeName:
    negativeButton:
    positiveButton:
    altNegativeButton:
    altPositiveButton:
    gravity: 0
    dead: 0.019
    sensitivity: 1
    snap: 0
    invert: 0
    type: 2
    axis: 3
    joyNum: 3
  - serializedVersion: 3
    m_Name: joy3axis5
    descriptiveName:
    descriptiveNegativeName:
    negativeButton:
    positiveButton:
    altNegativeButton:
    altPositiveButton:
    gravity: 0
    dead: 0.019
    sensitivity: 1
    snap: 0
    invert: 0
    type: 2
    axis: 4
    joyNum: 3
  - serializedVersion: 3
    m_Name: joy3axis6
    descriptiveName:
    descriptiveNegativeName:
    negativeButton:
    positiveButton:
    altNegativeButton:
    altPositiveButton:
    gravity: 0
    dead: 0.019
    sensitivity: 1
    snap: 0
    invert: 0
    type: 2
    axis: 5
    joyNum: 3
  - serializedVersion: 3
    m_Name: joy3axis7
    descriptiveName:
    descriptiveNegativeName:
    negativeButton:
    positiveButton:
    altNegativeButton:
    altPositiveButton:
    gravity: 0
    dead: 0.019
    sensitivity: 1
    snap: 0
    invert: 0
    type: 2
    axis: 6
    joyNum: 3
  - serializedVersion: 3
    m_Name: joy4axis1
    descriptiveName:
    descriptiveNegativeName:
    negativeButton:
    positiveButton:
    altNegativeButton:
    altPositiveButton:
    gravity: 0
    dead: 0.019
    sensitivity: 1
    snap: 0
    invert: 0
    type: 2
    axis: 0
    joyNum: 4
  - serializedVersion: 3
    m_Name: joy4axis2
    descriptiveName:
    descriptiveNegativeName:
    negativeButton:
    positiveButton:
    altNegativeButton:
    altPositiveButton:
    gravity: 0
    dead: 0.019
    sensitivity: 1
    snap: 0
    invert: 0
    type: 2
    axis: 1
    joyNum: 4
  - serializedVersion: 3
    m_Name: joy4axis3
    descriptiveName:
    descriptiveNegativeName:
    negativeButton:
    positiveButton:
    altNegativeButton:
    altPositiveButton:
    gravity: 0
    dead: 0.019
    sensitivity: 1
    snap: 0
    invert: 0
    type: 2
    axis: 2
    joyNum: 4
  - serializedVersion: 3
    m_Name: joy4axis4
    descriptiveName:
    descriptiveNegativeName:
    negativeButton:
    positiveButton:
    altNegativeButton:
    altPositiveButton:
    gravity: 0
    dead: 0.019
    sensitivity: 1
    snap: 0
    invert: 0
    type: 2
    axis: 3
    joyNum: 4
  - serializedVersion: 3
    m_Name: joy4axis5
    descriptiveName:
    descriptiveNegativeName:
    negativeButton:
    positiveButton:
    altNegativeButton:
    altPositiveButton:
    gravity: 0
    dead: 0.019
    sensitivity: 1
    snap: 0
    invert: 0
    type: 2
    axis: 4
    joyNum: 4
  - serializedVersion: 3
    m_Name: joy4axis6
    descriptiveName:
    descriptiveNegativeName:
    negativeButton:
    positiveButton:
    altNegativeButton:
    altPositiveButton:
    gravity: 0
    dead: 0.019
    sensitivity: 1
    snap: 0
    invert: 0
    type: 2
    axis: 5
    joyNum: 4
  - serializedVersion: 3
    m_Name: joy4axis7
    descriptiveName:
    descriptiveNegativeName:
    negativeButton:
    positiveButton:
    altNegativeButton:
    altPositiveButton:
    gravity: 0
    dead: 0.019
    sensitivity: 1
    snap: 0
    invert: 0
    type: 2
    axis: 6
    joyNum: 4
  - serializedVersion: 3
    m_Name: joy1button0
    descriptiveName:
    descriptiveNegativeName:
    negativeButton:
    positiveButton: joystick 1 button 0
    altNegativeButton:
    altPositiveButton:
    gravity: 1000
    dead: 0.001
    sensitivity: 1000
    snap: 0
    invert: 0
    type: 0
    axis: 0
    joyNum: 1
  - serializedVersion: 3
    m_Name: joy1button1
    descriptiveName:
    descriptiveNegativeName:
    negativeButton:
    positiveButton: joystick 1 button 1
    altNegativeButton:
    altPositiveButton:
    gravity: 1000
    dead: 0.001
    sensitivity: 1000
    snap: 0
    invert: 0
    type: 0
    axis: 0
    joyNum: 1
  - serializedVersion: 3
    m_Name: joy2button0
    descriptiveName:
    descriptiveNegativeName:
    negativeButton:
    positiveButton: joystick 2 button 0
    altNegativeButton:
    altPositiveButton:
    gravity: 1000
    dead: 0.001
    sensitivity: 1000
    snap: 0
    invert: 0
    type: 0
    axis: 0
    joyNum: 2
  - serializedVersion: 3
    m_Name: joy2button1
    descriptiveName:
    descriptiveNegativeName:
    negativeButton:
    positiveButton: joystick 2 button 1
    altNegativeButton:
    altPositiveButton:
    gravity: 1000
    dead: 0.001
    sensitivity: 1000
    snap: 0
    invert: 0
    type: 0
    axis: 0
    joyNum: 2
  - serializedVersion: 3
    m_Name: joy3button0
    descriptiveName:
    descriptiveNegativeName:
    negativeButton:
    positiveButton: joystick 3 button 0
    altNegativeButton:
    altPositiveButton:
    gravity: 1000
    dead: 0.001
    sensitivity: 1000
    snap: 0
    invert: 0
    type: 0
    axis: 0
    joyNum: 3
  - serializedVersion: 3
    m_Name: joy3button1
    descriptiveName:
    descriptiveNegativeName:
    negativeButton:
    positiveButton: joystick 3 button 1
    altNegativeButton:
    altPositiveButton:
    gravity: 1000
    dead: 0.001
    sensitivity: 1000
    snap: 0
    invert: 0
    type: 0
    axis: 0
    joyNum: 3
  - serializedVersion: 3
    m_Name: joy4button0
    descriptiveName:
    descriptiveNegativeName:
    negativeButton:
    positiveButton: joystick 4 button 0
    altNegativeButton:
    altPositiveButton:
    gravity: 1000
    dead: 0.001
    sensitivity: 1000
    snap: 0
    invert: 0
    type: 0
    axis: 0
    joyNum: 4
  - serializedVersion: 3
    m_Name: joy4button1
    descriptiveName:
    descriptiveNegativeName:
    negativeButton:
    positiveButton: joystick 4 button 1
    altNegativeButton:
    altPositiveButton:
    gravity: 1000
    dead: 0.001
    sensitivity: 1000
    snap: 0
    invert: 0
    type: 0
    axis: 0
    joyNum: 4
