%YAML 1.1
%TAG !u! tag:unity3d.com,2011:
--- !u!94 &1
ScriptMapper:
  m_ObjectHideFlags: 0
  m_Shaders:
    m_ObjectToName:
    - first: {fileID: 4800000, guid: 77b554a6ce3b7784ca294002dbcec56c, type: 3}
      second: Projector/Multiply
    - first: {fileID: 4800000, guid: 0000000deadbeef15deadf00d0000000, type: 3}
      second: Hidden/Shadow-ScreenBlur
    - first: {fileID: 4800000, guid: 0000000deadbeef15deadf00d0000000, type: 3}
      second: Hidden/Camera-DepthTexture
    - first: {fileID: 4800000, guid: 0000000deadbeef15deadf00d0000000, type: 3}
      second: Hidden/Camera-DepthNormalTexture
    - first: {fileID: 4800000, guid: 0000000deadbeef15deadf00d0000000, type: 3}
      second: Hidden/Internal-PrePassLighting
    - first: {fileID: 4800000, guid: 0000000deadbeef15deadf00d0000000, type: 3}
      second: Hidden/Internal-PrePassCollectShadows
    - first: {fileID: 4800000, guid: 0000000deadbeef15deadf00d0000000, type: 3}
      second: Hidden/Internal-CombineDepthNormals
    - first: {fileID: 4800000, guid: 0000000deadbeef15deadf00d0000000, type: 3}
      second: Hidden/BlitCopy
    - first: {fileID: 4800000, guid: 0000000deadbeef15deadf00d0000000, type: 3}
      second: Hidden/Shadow-ScreenBlurRotated
    - first: {fileID: 4800000, guid: 0000000deadbeef15deadf00d0000000, type: 3}
      second: Hidden/InternalClear
    - first: {fileID: 4800000, guid: 0000000deadbeef15deadf00d0000000, type: 3}
      second: Hidden/Internal-Flare
    - first: {fileID: 4800000, guid: 0000000deadbeef15deadf00d0000000, type: 3}
      second: Hidden/Internal-Halo
    - first: {fileID: 4800000, guid: 0000000deadbeef15deadf00d0000000, type: 3}
      second: Hidden/Internal-GUITextureClip
    - first: {fileID: 4800000, guid: 0000000deadbeef15deadf00d0000000, type: 3}
      second: Hidden/Internal-GUITextureClipText
    - first: {fileID: 4800000, guid: 0000000deadbeef15deadf00d0000000, type: 3}
      second: Hidden/Internal-GUITexture
    - first: {fileID: 4800000, guid: 0000000deadbeef15deadf00d0000000, type: 3}
      second: Hidden/Internal-GUITextureBlit
    - first: {fileID: 4800000, guid: 0000000deadbeef15deadf00d0000000, type: 3}
      second: GUI/Text Shader
    - first: {fileID: 4800000, guid: 0000000deadbeef15deadf00d0000000, type: 3}
      second: Sprites/Default
    - first: {fileID: 6, guid: 0000000000000000f000000000000000, type: 0}
      second: VertexLit
    - first: {fileID: 0}
      second: Legacy Shaders/Diffuse Fast
    - first: {fileID: 7, guid: 0000000000000000f000000000000000, type: 0}
      second: Diffuse
    - first: {fileID: 2, guid: 0000000000000000f000000000000000, type: 0}
      second: Bumped Diffuse
    - first: {fileID: 3, guid: 0000000000000000f000000000000000, type: 0}
      second: Specular
    - first: {fileID: 4, guid: 0000000000000000f000000000000000, type: 0}
      second: Bumped Specular
    - first: {fileID: 0}
      second: Diffuse Detail
    - first: {fileID: 14, guid: 0000000000000000f000000000000000, type: 0}
      second: Self-Illumin/VertexLit
    - first: {fileID: 10, guid: 0000000000000000f000000000000000, type: 0}
      second: Self-Illumin/Diffuse
    - first: {fileID: 11, guid: 0000000000000000f000000000000000, type: 0}
      second: Self-Illumin/Bumped Diffuse
    - first: {fileID: 0}
      second: Self-Illumin/Specular
    - first: {fileID: 0}
      second: Self-Illumin/Bumped Specular
    - first: {fileID: 0}
      second: Reflective/VertexLit
    - first: {fileID: 0}
      second: Reflective/Bumped Unlit
    - first: {fileID: 0}
      second: Reflective/Diffuse
    - first: {fileID: 0}
      second: Reflective/Bumped Diffuse
    - first: {fileID: 0}
      second: Reflective/Bumped VertexLit
    - first: {fileID: 0}
      second: Reflective/Specular
    - first: {fileID: 0}
      second: Reflective/Bumped Specular
    - first: {fileID: 34, guid: 0000000000000000f000000000000000, type: 0}
      second: Transparent/VertexLit
    - first: {fileID: 30, guid: 0000000000000000f000000000000000, type: 0}
      second: Transparent/Diffuse
    - first: {fileID: 31, guid: 0000000000000000f000000000000000, type: 0}
      second: Transparent/Bumped Diffuse
    - first: {fileID: 0}
      second: Transparent/Specular
    - first: {fileID: 0}
      second: Transparent/Bumped Specular
    - first: {fileID: 0}
      second: Transparent/Cutout/VertexLit
    - first: {fileID: 0}
      second: Transparent/Cutout/Diffuse
    - first: {fileID: 0}
      second: Transparent/Cutout/Bumped Diffuse
    - first: {fileID: 0}
      second: Transparent/Cutout/Specular
    - first: {fileID: 0}
      second: Transparent/Cutout/Bumped Specular
    - first: {fileID: 0}
      second: Parallax Diffuse
    - first: {fileID: 0}
      second: Parallax Specular
    - first: {fileID: 0}
      second: Self-Illumin/Parallax Diffuse
    - first: {fileID: 0}
      second: Self-Illumin/Parallax Specular
    - first: {fileID: 0}
      second: Reflective/Parallax Diffuse
    - first: {fileID: 0}
      second: Reflective/Parallax Specular
    - first: {fileID: 0}
      second: Transparent/Parallax Diffuse
    - first: {fileID: 0}
      second: Transparent/Parallax Specular
    - first: {fileID: 4800000, guid: 3e803d21cf6043045bcf20a80dfdedf6, type: 3}
      second: Decal
    - first: {fileID: 0}
      second: FX/Flare
    - first: {fileID: 0}
      second: RenderFX/Skybox Cubed
    - first: {fileID: 0}
      second: RenderFX/Skybox
    - first: {fileID: 0}
      second: Particles/Additive
    - first: {fileID: 0}
      second: Particles/~Additive-Multiply
    - first: {fileID: 0}
      second: Particles/Additive (Soft)
    - first: {fileID: 0}
      second: Particles/Alpha Blended
    - first: {fileID: 0}
      second: Particles/Multiply
    - first: {fileID: 0}
      second: Particles/Multiply (Double)
    - first: {fileID: 207, guid: 0000000000000000f000000000000000, type: 0}
      second: Particles/Alpha Blended Premultiply
    - first: {fileID: 0}
      second: Particles/VertexLit Blended
    - first: {fileID: 10800, guid: 0000000000000000f000000000000000, type: 0}
      second: Sprites/Diffuse
    - first: {fileID: 0}
      second: Transparent/Cutout/Soft Edge Unlit
    - first: {fileID: 0}
      second: Hidden/TerrainEngine/Details/Vertexlit
    - first: {fileID: 0}
      second: Hidden/TerrainEngine/Details/WavingDoublePass
    - first: {fileID: 0}
      second: Hidden/TerrainEngine/Details/BillboardWavingDoublePass
    - first: {fileID: 0}
      second: Nature/Terrain/Diffuse
    - first: {fileID: 0}
      second: Hidden/TerrainEngine/Splatmap/Lightmap-AddPass
    - first: {fileID: 0}
      second: Hidden/TerrainEngine/BillboardTree
    - first: {fileID: 0}
      second: Legacy Shaders/Lightmapped/VertexLit
    - first: {fileID: 0}
      second: Legacy Shaders/Lightmapped/Diffuse
    - first: {fileID: 0}
      second: Legacy Shaders/Lightmapped/Bumped Diffuse
    - first: {fileID: 0}
      second: Legacy Shaders/Lightmapped/Specular
    - first: {fileID: 0}
      second: Legacy Shaders/Lightmapped/Bumped Specular
    - first: {fileID: 0}
      second: Hidden/Nature/Tree Soft Occlusion Bark Rendertex
    - first: {fileID: 0}
      second: Nature/Tree Soft Occlusion Bark
    - first: {fileID: 0}
      second: Hidden/Nature/Tree Soft Occlusion Leaves Rendertex
    - first: {fileID: 0}
      second: Nature/Tree Soft Occlusion Leaves
    - first: {fileID: 0}
      second: Nature/Tree Creator Bark
    - first: {fileID: 0}
      second: Nature/Tree Creator Leaves
    - first: {fileID: 0}
      second: Hidden/Nature/Tree Creator Bark Rendertex
    - first: {fileID: 0}
      second: Hidden/Nature/Tree Creator Leaves Rendertex
    - first: {fileID: 0}
      second: Hidden/Nature/Tree Creator Bark Optimized
    - first: {fileID: 0}
      second: Hidden/Nature/Tree Creator Leaves Optimized
    - first: {fileID: 0}
      second: Nature/Tree Creator Leaves Fast
    - first: {fileID: 0}
      second: Hidden/Nature/Tree Creator Leaves Fast Optimized
    - first: {fileID: 0}
      second: Nature/Terrain/Bumped Specular
    - first: {fileID: 0}
      second: Hidden/Nature/Terrain/Bumped Specular AddPass
    - first: {fileID: 0}
      second: Mobile/Skybox
    - first: {fileID: 0}
      second: Mobile/VertexLit
    - first: {fileID: 0}
      second: Mobile/Diffuse
    - first: {fileID: 0}
      second: Mobile/Bumped Diffuse
    - first: {fileID: 0}
      second: Mobile/Bumped Specular
    - first: {fileID: 0}
      second: Mobile/Bumped Specular (1 Directional Light)
    - first: {fileID: 0}
      second: Mobile/VertexLit (Only Directional Lights)
    - first: {fileID: 0}
      second: Mobile/Unlit (Supports Lightmap)
    - first: {fileID: 0}
      second: Mobile/Particles/Additive
    - first: {fileID: 0}
      second: Mobile/Particles/Alpha Blended
    - first: {fileID: 0}
      second: Mobile/Particles/VertexLit Blended
    - first: {fileID: 0}
      second: Mobile/Particles/Multiply
    - first: {fileID: 0}
      second: Unlit/Transparent
    - first: {fileID: 0}
      second: Unlit/Transparent Cutout
    - first: {fileID: 0}
      second: Unlit/Texture
    - first: {fileID: 4800000, guid: 0000000deadbeef15deadf00d0000000, type: 3}
      second: Hidden/InternalErrorShader
